%YAML 1.1
%TAG !u! tag:unity3d.com,2011:
--- !u!114 &11400000
MonoBehaviour:
  m_ObjectHideFlags: 0
  m_PrefabParentObject: {fileID: 0}
  m_PrefabInternal: {fileID: 0}
  m_GameObject: {fileID: 0}
  m_Enabled: 1
  m_EditorHideFlags: 0
  m_Script: {fileID: 11500000, guid: ce76828da2bdd9a409e8dfa3d51af1af, type: 3}
  m_Name: Level02Data
  m_EditorClassIdentifier: 
  Name: 
  Unlocked: 0
  Completed: 0
  GroundEnemiesKilled: 0
  AirEnemiesKilled: 0
  PowerUpsCollected: 0
  AlliesSaved: 0
  SecondaryAmmoCollected: 0
  SecondaryKills: 0
  YellowDiamondsColleted: 0
  Achievements: []
