%YAML 1.1
%TAG !u! tag:unity3d.com,2011:
--- !u!74 &7400000
AnimationClip:
  m_ObjectHideFlags: 0
  m_PrefabParentObject: {fileID: 0}
  m_PrefabInternal: {fileID: 0}
  m_Name: bossHPBarDamage
  serializedVersion: 6
  m_Legacy: 0
  m_Compressed: 0
  m_UseHighQualityCurve: 1
  m_RotationCurves: []
  m_CompressedRotationCurves: []
  m_EulerCurves: []
  m_PositionCurves: []
  m_ScaleCurves: []
  m_FloatCurves:
  - curve:
      serializedVersion: 2
      m_Curve:
      - serializedVersion: 2
        time: 0
        value: -6.2
        inSlope: 1148.7
        outSlope: 1148.7
        tangentMode: 34
      - serializedVersion: 2
        time: 0.033333335
        value: 32.09
        inSlope: -818.3999
        outSlope: -818.3999
        tangentMode: 34
      - serializedVersion: 2
        time: 0.06666667
        value: -60.76
        inSlope: -574.34985
        outSlope: -574.34985
        tangentMode: 34
      - serializedVersion: 2
        time: 0.1
        value: -6.2
        inSlope: 818.4
        outSlope: 818.4
        tangentMode: 34
      - serializedVersion: 2
        time: 0.13333334
        value: -6.2
        inSlope: 574.35004
        outSlope: 574.35004
        tangentMode: 34
      - serializedVersion: 2
        time: 0.16666667
        value: 32.09
        inSlope: -818.39996
        outSlope: -818.39996
        tangentMode: 34
      - serializedVersion: 2
        time: 0.2
        value: -60.76
        inSlope: -574.35
        outSlope: -574.35
        tangentMode: 34
      - serializedVersion: 2
        time: 0.23333333
        value: -6.2
        inSlope: 818.4
        outSlope: 818.4
        tangentMode: 34
      - serializedVersion: 2
        time: 0.26666668
        value: -6.2
        inSlope: 574.35004
        outSlope: 574.35004
        tangentMode: 34
      - serializedVersion: 2
        time: 0.3
        value: 32.09
        inSlope: -818.39996
        outSlope: -818.39996
        tangentMode: 34
      - serializedVersion: 2
        time: 0.33333334
        value: -60.76
        inSlope: -574.35
        outSlope: -574.35
        tangentMode: 34
      - serializedVersion: 2
        time: 0.36666667
        value: -6.2
        inSlope: 818.4
        outSlope: 818.4
        tangentMode: 34
      - serializedVersion: 2
        time: 0.4
        value: -6.2
        inSlope: 574.35004
        outSlope: 574.35004
        tangentMode: 34
      - serializedVersion: 2
        time: 0.43333334
        value: 32.09
        inSlope: -818.39996
        outSlope: -818.39996
        tangentMode: 34
      - serializedVersion: 2
        time: 0.46666667
        value: -60.76
        inSlope: -574.35
        outSlope: -574.35
        tangentMode: 34
      - serializedVersion: 2
        time: 0.5
        value: -6.2
        inSlope: 1636.8
        outSlope: 1636.8
        tangentMode: 34
      m_PreInfinity: 2
      m_PostInfinity: 2
      m_RotationOrder: 4
    attribute: m_AnchoredPosition.x
    path: bar
    classID: 224
    script: {fileID: 0}
  - curve:
      serializedVersion: 2
      m_Curve:
      - serializedVersion: 2
        time: 0
        value: 1
        inSlope: 0
        outSlope: 0
        tangentMode: 0
      - serializedVersion: 2
        time: 0.083333336
        value: 1
        inSlope: 0
        outSlope: 0
        tangentMode: 0
      - serializedVersion: 2
        time: 0.16666667
        value: 1
        inSlope: 0
        outSlope: 0
        tangentMode: 0
      - serializedVersion: 2
        time: 0.25
        value: 1
        inSlope: 0
        outSlope: 0
        tangentMode: 0
      - serializedVersion: 2
        time: 0.33333334
        value: 1
        inSlope: 0
        outSlope: 0
        tangentMode: 0
      - serializedVersion: 2
        time: 0.4166667
        value: 1
        inSlope: 0
        outSlope: 0
        tangentMode: 0
      - serializedVersion: 2
        time: 0.5
        value: 1
        inSlope: 0
        outSlope: 0
        tangentMode: 0
      - serializedVersion: 2
        time: 0.5833333
        value: 1
        inSlope: 0
        outSlope: 0
        tangentMode: 0
      m_PreInfinity: 2
      m_PostInfinity: 2
      m_RotationOrder: 4
    attribute: m_Color.r
    path: bar
    classID: 114
    script: {fileID: -765806418, guid: f5f67c52d1564df4a8936ccd202a3bd8, type: 3}
  - curve:
      serializedVersion: 2
      m_Curve:
      - serializedVersion: 2
        time: 0
        value: 1
        inSlope: -12
        outSlope: -12
        tangentMode: 0
      - serializedVersion: 2
        time: 0.083333336
        value: 0
        inSlope: 0
        outSlope: 0
        tangentMode: 0
      - serializedVersion: 2
        time: 0.16666667
        value: 1
        inSlope: -0.00000047683716
        outSlope: -0.00000047683716
        tangentMode: 0
      - serializedVersion: 2
        time: 0.25
        value: 0
        inSlope: -0.0000009536743
        outSlope: -0.0000009536743
        tangentMode: 0
      - serializedVersion: 2
        time: 0.33333334
        value: 1
        inSlope: 0
        outSlope: 0
        tangentMode: 0
      - serializedVersion: 2
        time: 0.4166667
        value: 0
        inSlope: 0.0000019073486
        outSlope: 0.0000019073486
        tangentMode: 0
      - serializedVersion: 2
        time: 0.5
        value: 1
        inSlope: 0
        outSlope: 0
        tangentMode: 0
      - serializedVersion: 2
        time: 0.5833333
        value: 0
        inSlope: -12.000003
        outSlope: -12.000003
        tangentMode: 0
      m_PreInfinity: 2
      m_PostInfinity: 2
      m_RotationOrder: 4
    attribute: m_Color.g
    path: bar
    classID: 114
    script: {fileID: -765806418, guid: f5f67c52d1564df4a8936ccd202a3bd8, type: 3}
  - curve:
      serializedVersion: 2
      m_Curve:
      - serializedVersion: 2
        time: 0
        value: 1
        inSlope: -12
        outSlope: -12
        tangentMode: 0
      - serializedVersion: 2
        time: 0.083333336
        value: 0
        inSlope: 0
        outSlope: 0
        tangentMode: 0
      - serializedVersion: 2
        time: 0.16666667
        value: 1
        inSlope: -0.00000047683716
        outSlope: -0.00000047683716
        tangentMode: 0
      - serializedVersion: 2
        time: 0.25
        value: 0
        inSlope: -0.0000009536743
        outSlope: -0.0000009536743
        tangentMode: 0
      - serializedVersion: 2
        time: 0.33333334
        value: 1
        inSlope: 0
        outSlope: 0
        tangentMode: 0
      - serializedVersion: 2
        time: 0.4166667
        value: 0
        inSlope: 0.0000019073486
        outSlope: 0.0000019073486
        tangentMode: 0
      - serializedVersion: 2
        time: 0.5
        value: 1
        inSlope: 0
        outSlope: 0
        tangentMode: 0
      - serializedVersion: 2
        time: 0.5833333
        value: 0
        inSlope: -12.000003
        outSlope: -12.000003
        tangentMode: 0
      m_PreInfinity: 2
      m_PostInfinity: 2
      m_RotationOrder: 4
    attribute: m_Color.b
    path: bar
    classID: 114
    script: {fileID: -765806418, guid: f5f67c52d1564df4a8936ccd202a3bd8, type: 3}
  - curve:
      serializedVersion: 2
      m_Curve:
      - serializedVersion: 2
        time: 0
        value: 107
        inSlope: 1140
        outSlope: 1140
        tangentMode: 34
      - serializedVersion: 2
        time: 0.033333335
        value: 145
        inSlope: -779.9999
        outSlope: -779.9999
        tangentMode: 34
      - serializedVersion: 2
        time: 0.06666667
        value: 55
        inSlope: -569.9998
        outSlope: -569.9998
        tangentMode: 34
      - serializedVersion: 2
        time: 0.1
        value: 107
        inSlope: 780.00006
        outSlope: 780.00006
        tangentMode: 34
      - serializedVersion: 2
        time: 0.13333334
        value: 107
        inSlope: 570.00006
        outSlope: 570.00006
        tangentMode: 34
      - serializedVersion: 2
        time: 0.16666667
        value: 145
        inSlope: -779.99945
        outSlope: -779.99945
        tangentMode: 34
      - serializedVersion: 2
        time: 0.20000002
        value: 55
        inSlope: -569.99945
        outSlope: -569.99945
        tangentMode: 34
      - serializedVersion: 2
        time: 0.23333335
        value: 107
        inSlope: 780.00006
        outSlope: 780.00006
        tangentMode: 34
      - serializedVersion: 2
        time: 0.26666668
        value: 107
        inSlope: 570.00006
        outSlope: 570.00006
        tangentMode: 34
      - serializedVersion: 2
        time: 0.3
        value: 145
        inSlope: -780.00006
        outSlope: -780.00006
        tangentMode: 34
      - serializedVersion: 2
        time: 0.33333334
        value: 55
        inSlope: -570.00006
        outSlope: -570.00006
        tangentMode: 34
      - serializedVersion: 2
        time: 0.36666667
        value: 107
        inSlope: 780.00006
        outSlope: 780.00006
        tangentMode: 34
      - serializedVersion: 2
        time: 0.4
        value: 107
        inSlope: 570.00006
        outSlope: 570.00006
        tangentMode: 34
      - serializedVersion: 2
        time: 0.43333334
        value: 145
        inSlope: -780.00006
        outSlope: -780.00006
        tangentMode: 34
      - serializedVersion: 2
        time: 0.46666667
        value: 55
        inSlope: -570.00006
        outSlope: -570.00006
        tangentMode: 34
      - serializedVersion: 2
        time: 0.5
        value: 107
        inSlope: 1560.0001
        outSlope: 1560.0001
        tangentMode: 34
      m_PreInfinity: 2
      m_PostInfinity: 2
      m_RotationOrder: 4
    attribute: m_AnchoredPosition.x
    path: Panel (1)
    classID: 224
    script: {fileID: 0}
  - curve:
      serializedVersion: 2
      m_Curve:
      - serializedVersion: 2
        time: 0
        value: -19
        inSlope: 1140
        outSlope: 1140
        tangentMode: 34
      - serializedVersion: 2
        time: 0.033333335
        value: 19
        inSlope: -779.9999
        outSlope: -779.9999
        tangentMode: 34
      - serializedVersion: 2
        time: 0.06666667
        value: -71
        inSlope: -569.9998
        outSlope: -569.9998
        tangentMode: 34
      - serializedVersion: 2
        time: 0.1
        value: -19
        inSlope: 780.00006
        outSlope: 780.00006
        tangentMode: 34
      - serializedVersion: 2
        time: 0.13333334
        value: -19
        inSlope: 570.00006
        outSlope: 570.00006
        tangentMode: 34
      - serializedVersion: 2
        time: 0.16666667
        value: 19
        inSlope: -779.99945
        outSlope: -779.99945
        tangentMode: 34
      - serializedVersion: 2
        time: 0.20000002
        value: -71
        inSlope: -569.99945
        outSlope: -569.99945
        tangentMode: 34
      - serializedVersion: 2
        time: 0.23333335
        value: -19
        inSlope: 780.00006
        outSlope: 780.00006
        tangentMode: 34
      - serializedVersion: 2
        time: 0.26666668
        value: -19
        inSlope: 570.00006
        outSlope: 570.00006
        tangentMode: 34
      - serializedVersion: 2
        time: 0.3
        value: 19
        inSlope: -780.00006
        outSlope: -780.00006
        tangentMode: 34
      - serializedVersion: 2
        time: 0.33333334
        value: -71
        inSlope: -570.00006
        outSlope: -570.00006
        tangentMode: 34
      - serializedVersion: 2
        time: 0.36666667
        value: -19
        inSlope: 780.00006
        outSlope: 780.00006
        tangentMode: 34
      - serializedVersion: 2
        time: 0.4
        value: -19
        inSlope: 570.00006
        outSlope: 570.00006
        tangentMode: 34
      - serializedVersion: 2
        time: 0.43333334
        value: 19
        inSlope: -780.00006
        outSlope: -780.00006
        tangentMode: 34
      - serializedVersion: 2
        time: 0.46666667
        value: -71
        inSlope: -570.00006
        outSlope: -570.00006
        tangentMode: 34
      - serializedVersion: 2
        time: 0.5
        value: -19
        inSlope: 1560.0001
        outSlope: 1560.0001
        tangentMode: 34
      m_PreInfinity: 2
      m_PostInfinity: 2
      m_RotationOrder: 4
    attribute: m_AnchoredPosition.x
    path: Panel (2)
    classID: 224
    script: {fileID: 0}
  - curve:
      serializedVersion: 2
      m_Curve:
      - serializedVersion: 2
        time: 0
        value: 1
        inSlope: 0
        outSlope: 0
        tangentMode: 34
      - serializedVersion: 2
        time: 0.083333336
        value: 1
        inSlope: 0
        outSlope: 0
        tangentMode: 34
      - serializedVersion: 2
        time: 0.16666667
        value: 1
        inSlope: 0
        outSlope: 0
        tangentMode: 34
      - serializedVersion: 2
        time: 0.25
        value: 1
        inSlope: 0
        outSlope: 0
        tangentMode: 34
      - serializedVersion: 2
        time: 0.33333334
        value: 1
        inSlope: 0
        outSlope: 0
        tangentMode: 34
      - serializedVersion: 2
        time: 0.4166667
        value: 1
        inSlope: 0
        outSlope: 0
        tangentMode: 34
      - serializedVersion: 2
        time: 0.5
        value: 1
        inSlope: 0
        outSlope: 0
        tangentMode: 34
      - serializedVersion: 2
        time: 0.5833333
        value: 1
        inSlope: 0
        outSlope: 0
        tangentMode: 34
      m_PreInfinity: 2
      m_PostInfinity: 2
      m_RotationOrder: 4
    attribute: m_Color.a
    path: Panel (1)
    classID: 114
    script: {fileID: -765806418, guid: f5f67c52d1564df4a8936ccd202a3bd8, type: 3}
  - curve:
      serializedVersion: 2
      m_Curve:
      - serializedVersion: 2
        time: 0
        value: 1
        inSlope: 0
        outSlope: 0
        tangentMode: 34
      - serializedVersion: 2
        time: 0.083333336
        value: 1
        inSlope: 0
        outSlope: 0
        tangentMode: 34
      - serializedVersion: 2
        time: 0.16666667
        value: 1
        inSlope: 0
        outSlope: 0
        tangentMode: 34
      - serializedVersion: 2
        time: 0.25
        value: 1
        inSlope: 0
        outSlope: 0
        tangentMode: 34
      - serializedVersion: 2
        time: 0.33333334
        value: 1
        inSlope: 0
        outSlope: 0
        tangentMode: 34
      - serializedVersion: 2
        time: 0.4166667
        value: 1
        inSlope: 0
        outSlope: 0
        tangentMode: 34
      - serializedVersion: 2
        time: 0.5
        value: 1
        inSlope: 0
        outSlope: 0
        tangentMode: 34
      - serializedVersion: 2
        time: 0.5833333
        value: 1
        inSlope: 0
        outSlope: 0
        tangentMode: 34
      m_PreInfinity: 2
      m_PostInfinity: 2
      m_RotationOrder: 4
    attribute: m_Color.a
    path: Panel (2)
    classID: 114
    script: {fileID: -765806418, guid: f5f67c52d1564df4a8936ccd202a3bd8, type: 3}
  - curve:
      serializedVersion: 2
      m_Curve:
      - serializedVersion: 2
        time: 0
        value: 1
        inSlope: 0
        outSlope: 0
        tangentMode: 34
      - serializedVersion: 2
        time: 0.083333336
        value: 1
        inSlope: 0
        outSlope: 0
        tangentMode: 34
      - serializedVersion: 2
        time: 0.16666667
        value: 1
        inSlope: 0
        outSlope: 0
        tangentMode: 34
      - serializedVersion: 2
        time: 0.25
        value: 1
        inSlope: 0
        outSlope: 0
        tangentMode: 34
      - serializedVersion: 2
        time: 0.33333334
        value: 1
        inSlope: 0
        outSlope: 0
        tangentMode: 34
      - serializedVersion: 2
        time: 0.4166667
        value: 1
        inSlope: 0
        outSlope: 0
        tangentMode: 34
      - serializedVersion: 2
        time: 0.5
        value: 1
        inSlope: 0
        outSlope: 0
        tangentMode: 34
      - serializedVersion: 2
        time: 0.5833333
        value: 1
        inSlope: 0
        outSlope: 0
        tangentMode: 34
      m_PreInfinity: 2
      m_PostInfinity: 2
      m_RotationOrder: 4
    attribute: m_Color.r
    path: Panel (1)
    classID: 114
    script: {fileID: -765806418, guid: f5f67c52d1564df4a8936ccd202a3bd8, type: 3}
  - curve:
      serializedVersion: 2
      m_Curve:
      - serializedVersion: 2
        time: 0
        value: 1
        inSlope: -12
        outSlope: -12
        tangentMode: 34
      - serializedVersion: 2
        time: 0.083333336
        value: 0
        inSlope: 0
        outSlope: 0
        tangentMode: 34
      - serializedVersion: 2
        time: 0.16666667
        value: 1
        inSlope: -0.00000047683716
        outSlope: -0.00000047683716
        tangentMode: 34
      - serializedVersion: 2
        time: 0.25
        value: 0
        inSlope: -0.0000009536743
        outSlope: -0.0000009536743
        tangentMode: 34
      - serializedVersion: 2
        time: 0.33333334
        value: 1
        inSlope: 0
        outSlope: 0
        tangentMode: 34
      - serializedVersion: 2
        time: 0.4166667
        value: 0
        inSlope: 0.0000019073486
        outSlope: 0.0000019073486
        tangentMode: 34
      - serializedVersion: 2
        time: 0.5
        value: 1
        inSlope: 0
        outSlope: 0
        tangentMode: 34
      - serializedVersion: 2
        time: 0.5833333
        value: 0
        inSlope: -12.000003
        outSlope: -12.000003
        tangentMode: 34
      m_PreInfinity: 2
      m_PostInfinity: 2
      m_RotationOrder: 4
    attribute: m_Color.g
    path: Panel (1)
    classID: 114
    script: {fileID: -765806418, guid: f5f67c52d1564df4a8936ccd202a3bd8, type: 3}
  - curve:
      serializedVersion: 2
      m_Curve:
      - serializedVersion: 2
        time: 0
        value: 1
        inSlope: -12
        outSlope: -12
        tangentMode: 34
      - serializedVersion: 2
        time: 0.083333336
        value: 0
        inSlope: 0
        outSlope: 0
        tangentMode: 34
      - serializedVersion: 2
        time: 0.16666667
        value: 1
        inSlope: -0.00000047683716
        outSlope: -0.00000047683716
        tangentMode: 34
      - serializedVersion: 2
        time: 0.25
        value: 0
        inSlope: -0.0000009536743
        outSlope: -0.0000009536743
        tangentMode: 34
      - serializedVersion: 2
        time: 0.33333334
        value: 1
        inSlope: 0
        outSlope: 0
        tangentMode: 34
      - serializedVersion: 2
        time: 0.4166667
        value: 0
        inSlope: 0.0000019073486
        outSlope: 0.0000019073486
        tangentMode: 34
      - serializedVersion: 2
        time: 0.5
        value: 1
        inSlope: 0
        outSlope: 0
        tangentMode: 34
      - serializedVersion: 2
        time: 0.5833333
        value: 0
        inSlope: -12.000003
        outSlope: -12.000003
        tangentMode: 34
      m_PreInfinity: 2
      m_PostInfinity: 2
      m_RotationOrder: 4
    attribute: m_Color.b
    path: Panel (1)
    classID: 114
    script: {fileID: -765806418, guid: f5f67c52d1564df4a8936ccd202a3bd8, type: 3}
  - curve:
      serializedVersion: 2
      m_Curve:
      - serializedVersion: 2
        time: 0
        value: 1
        inSlope: 0
        outSlope: 0
        tangentMode: 34
      - serializedVersion: 2
        time: 0.083333336
        value: 1
        inSlope: 0
        outSlope: 0
        tangentMode: 34
      - serializedVersion: 2
        time: 0.16666667
        value: 1
        inSlope: 0
        outSlope: 0
        tangentMode: 34
      - serializedVersion: 2
        time: 0.25
        value: 1
        inSlope: 0
        outSlope: 0
        tangentMode: 34
      - serializedVersion: 2
        time: 0.33333334
        value: 1
        inSlope: 0
        outSlope: 0
        tangentMode: 34
      - serializedVersion: 2
        time: 0.4166667
        value: 1
        inSlope: 0
        outSlope: 0
        tangentMode: 34
      - serializedVersion: 2
        time: 0.5
        value: 1
        inSlope: 0
        outSlope: 0
        tangentMode: 34
      - serializedVersion: 2
        time: 0.5833333
        value: 1
        inSlope: 0
        outSlope: 0
        tangentMode: 34
      m_PreInfinity: 2
      m_PostInfinity: 2
      m_RotationOrder: 4
    attribute: m_Color.r
    path: Panel (2)
    classID: 114
    script: {fileID: -765806418, guid: f5f67c52d1564df4a8936ccd202a3bd8, type: 3}
  - curve:
      serializedVersion: 2
      m_Curve:
      - serializedVersion: 2
        time: 0
        value: 1
        inSlope: -12
        outSlope: -12
        tangentMode: 34
      - serializedVersion: 2
        time: 0.083333336
        value: 0
        inSlope: 0
        outSlope: 0
        tangentMode: 34
      - serializedVersion: 2
        time: 0.16666667
        value: 1
        inSlope: -0.00000047683716
        outSlope: -0.00000047683716
        tangentMode: 34
      - serializedVersion: 2
        time: 0.25
        value: 0
        inSlope: -0.0000009536743
        outSlope: -0.0000009536743
        tangentMode: 34
      - serializedVersion: 2
        time: 0.33333334
        value: 1
        inSlope: 0
        outSlope: 0
        tangentMode: 34
      - serializedVersion: 2
        time: 0.4166667
        value: 0
        inSlope: 0.0000019073486
        outSlope: 0.0000019073486
        tangentMode: 34
      - serializedVersion: 2
        time: 0.5
        value: 1
        inSlope: 0
        outSlope: 0
        tangentMode: 34
      - serializedVersion: 2
        time: 0.5833333
        value: 0
        inSlope: -12.000003
        outSlope: -12.000003
        tangentMode: 34
      m_PreInfinity: 2
      m_PostInfinity: 2
      m_RotationOrder: 4
    attribute: m_Color.g
    path: Panel (2)
    classID: 114
    script: {fileID: -765806418, guid: f5f67c52d1564df4a8936ccd202a3bd8, type: 3}
  - curve:
      serializedVersion: 2
      m_Curve:
      - serializedVersion: 2
        time: 0
        value: 1
        inSlope: -12
        outSlope: -12
        tangentMode: 34
      - serializedVersion: 2
        time: 0.083333336
        value: 0
        inSlope: 0
        outSlope: 0
        tangentMode: 34
      - serializedVersion: 2
        time: 0.16666667
        value: 1
        inSlope: -0.00000047683716
        outSlope: -0.00000047683716
        tangentMode: 34
      - serializedVersion: 2
        time: 0.25
        value: 0
        inSlope: -0.0000009536743
        outSlope: -0.0000009536743
        tangentMode: 34
      - serializedVersion: 2
        time: 0.33333334
        value: 1
        inSlope: 0
        outSlope: 0
        tangentMode: 34
      - serializedVersion: 2
        time: 0.4166667
        value: 0
        inSlope: 0.0000019073486
        outSlope: 0.0000019073486
        tangentMode: 34
      - serializedVersion: 2
        time: 0.5
        value: 1
        inSlope: 0
        outSlope: 0
        tangentMode: 34
      - serializedVersion: 2
        time: 0.5833333
        value: 0
        inSlope: -12.000003
        outSlope: -12.000003
        tangentMode: 34
      m_PreInfinity: 2
      m_PostInfinity: 2
      m_RotationOrder: 4
    attribute: m_Color.b
    path: Panel (2)
    classID: 114
    script: {fileID: -765806418, guid: f5f67c52d1564df4a8936ccd202a3bd8, type: 3}
  m_PPtrCurves: []
  m_SampleRate: 60
  m_WrapMode: 0
  m_Bounds:
    m_Center: {x: 0, y: 0, z: 0}
    m_Extent: {x: 0, y: 0, z: 0}
  m_ClipBindingConstant:
    genericBindings:
    - path: 1996459178
      attribute: 1460864421
      script: {fileID: 0}
      classID: 224
      customType: 0
      isPPtrCurve: 0
    - path: 1996459178
      attribute: 4215373228
      script: {fileID: -765806418, guid: f5f67c52d1564df4a8936ccd202a3bd8, type: 3}
      classID: 114
      customType: 0
      isPPtrCurve: 0
    - path: 1996459178
      attribute: 2334886179
      script: {fileID: -765806418, guid: f5f67c52d1564df4a8936ccd202a3bd8, type: 3}
      classID: 114
      customType: 0
      isPPtrCurve: 0
    - path: 1173086552
      attribute: 1460864421
      script: {fileID: 0}
      classID: 224
      customType: 0
      isPPtrCurve: 0
    - path: 1858515611
      attribute: 1460864421
      script: {fileID: 0}
      classID: 224
      customType: 0
      isPPtrCurve: 0
    - path: 1173086552
      attribute: 4215373228
      script: {fileID: -765806418, guid: f5f67c52d1564df4a8936ccd202a3bd8, type: 3}
      classID: 114
      customType: 0
      isPPtrCurve: 0
    - path: 1173086552
      attribute: 2334886179
      script: {fileID: -765806418, guid: f5f67c52d1564df4a8936ccd202a3bd8, type: 3}
      classID: 114
      customType: 0
      isPPtrCurve: 0
    - path: 1858515611
      attribute: 4215373228
      script: {fileID: -765806418, guid: f5f67c52d1564df4a8936ccd202a3bd8, type: 3}
      classID: 114
      customType: 0
      isPPtrCurve: 0
    - path: 1858515611
      attribute: 2334886179
      script: {fileID: -765806418, guid: f5f67c52d1564df4a8936ccd202a3bd8, type: 3}
      classID: 114
      customType: 0
      isPPtrCurve: 0
    - path: 1996459178
      attribute: 2526845255
      script: {fileID: -765806418, guid: f5f67c52d1564df4a8936ccd202a3bd8, type: 3}
      classID: 114
      customType: 0
      isPPtrCurve: 0
    - path: 1173086552
      attribute: 304273561
      script: {fileID: -765806418, guid: f5f67c52d1564df4a8936ccd202a3bd8, type: 3}
      classID: 114
      customType: 0
      isPPtrCurve: 0
    - path: 1858515611
      attribute: 304273561
      script: {fileID: -765806418, guid: f5f67c52d1564df4a8936ccd202a3bd8, type: 3}
      classID: 114
      customType: 0
      isPPtrCurve: 0
    - path: 1173086552
      attribute: 2526845255
      script: {fileID: -765806418, guid: f5f67c52d1564df4a8936ccd202a3bd8, type: 3}
      classID: 114
      customType: 0
      isPPtrCurve: 0
    - path: 1858515611
      attribute: 2526845255
      script: {fileID: -765806418, guid: f5f67c52d1564df4a8936ccd202a3bd8, type: 3}
      classID: 114
      customType: 0
      isPPtrCurve: 0
    pptrCurveMapping: []
  m_AnimationClipSettings:
    serializedVersion: 2
    m_AdditiveReferencePoseClip: {fileID: 0}
    m_AdditiveReferencePoseTime: 0
    m_StartTime: 0
    m_StopTime: 0.5833333
    m_OrientationOffsetY: 0
    m_Level: 0
    m_CycleOffset: 0
    m_HasAdditiveReferencePose: 0
    m_LoopTime: 0
    m_LoopBlend: 0
    m_LoopBlendOrientation: 0
    m_LoopBlendPositionY: 0
    m_LoopBlendPositionXZ: 0
    m_KeepOriginalOrientation: 0
    m_KeepOriginalPositionY: 1
    m_KeepOriginalPositionXZ: 0
    m_HeightFromFeet: 0
    m_Mirror: 0
  m_EditorCurves:
  - curve:
      serializedVersion: 2
      m_Curve:
      - serializedVersion: 2
        time: 0
        value: -6.2
        inSlope: 1148.7
        outSlope: 1148.7
        tangentMode: 34
      - serializedVersion: 2
        time: 0.033333335
        value: 32.09
        inSlope: -818.3999
        outSlope: -818.3999
        tangentMode: 34
      - serializedVersion: 2
        time: 0.06666667
        value: -60.76
        inSlope: -574.34985
        outSlope: -574.34985
        tangentMode: 34
      - serializedVersion: 2
        time: 0.1
        value: -6.2
        inSlope: 818.4
        outSlope: 818.4
        tangentMode: 34
      - serializedVersion: 2
        time: 0.13333334
        value: -6.2
        inSlope: 574.35004
        outSlope: 574.35004
        tangentMode: 34
      - serializedVersion: 2
        time: 0.16666667
        value: 32.09
        inSlope: -818.39996
        outSlope: -818.39996
        tangentMode: 34
      - serializedVersion: 2
        time: 0.2
        value: -60.76
        inSlope: -574.35
        outSlope: -574.35
        tangentMode: 34
      - serializedVersion: 2
        time: 0.23333333
        value: -6.2
        inSlope: 818.4
        outSlope: 818.4
        tangentMode: 34
      - serializedVersion: 2
        time: 0.26666668
        value: -6.2
        inSlope: 574.35004
        outSlope: 574.35004
        tangentMode: 34
      - serializedVersion: 2
        time: 0.3
        value: 32.09
        inSlope: -818.39996
        outSlope: -818.39996
        tangentMode: 34
      - serializedVersion: 2
        time: 0.33333334
        value: -60.76
        inSlope: -574.35
        outSlope: -574.35
        tangentMode: 34
      - serializedVersion: 2
        time: 0.36666667
        value: -6.2
        inSlope: 818.4
        outSlope: 818.4
        tangentMode: 34
      - serializedVersion: 2
        time: 0.4
        value: -6.2
        inSlope: 574.35004
        outSlope: 574.35004
        tangentMode: 34
      - serializedVersion: 2
        time: 0.43333334
        value: 32.09
        inSlope: -818.39996
        outSlope: -818.39996
        tangentMode: 34
      - serializedVersion: 2
        time: 0.46666667
        value: -60.76
        inSlope: -574.35
        outSlope: -574.35
        tangentMode: 34
      - serializedVersion: 2
        time: 0.5
        value: -6.2
        inSlope: 1636.8
        outSlope: 1636.8
        tangentMode: 34
      m_PreInfinity: 2
      m_PostInfinity: 2
      m_RotationOrder: 4
    attribute: m_AnchoredPosition.x
    path: bar
    classID: 224
    script: {fileID: 0}
  - curve:
      serializedVersion: 2
      m_Curve:
      - serializedVersion: 2
        time: 0
        value: 1
        inSlope: 0
        outSlope: 0
        tangentMode: 0
      - serializedVersion: 2
        time: 0.083333336
        value: 1
        inSlope: 0
        outSlope: 0
        tangentMode: 0
      - serializedVersion: 2
        time: 0.16666667
        value: 1
        inSlope: 0
        outSlope: 0
        tangentMode: 0
      - serializedVersion: 2
        time: 0.25
        value: 1
        inSlope: 0
        outSlope: 0
        tangentMode: 0
      - serializedVersion: 2
        time: 0.33333334
        value: 1
        inSlope: 0
        outSlope: 0
        tangentMode: 0
      - serializedVersion: 2
        time: 0.4166667
        value: 1
        inSlope: 0
        outSlope: 0
        tangentMode: 0
      - serializedVersion: 2
        time: 0.5
        value: 1
        inSlope: 0
        outSlope: 0
        tangentMode: 0
      - serializedVersion: 2
        time: 0.5833333
        value: 1
        inSlope: 0
        outSlope: 0
        tangentMode: 0
      m_PreInfinity: 2
      m_PostInfinity: 2
      m_RotationOrder: 4
    attribute: m_Color.r
    path: bar
    classID: 114
    script: {fileID: -765806418, guid: f5f67c52d1564df4a8936ccd202a3bd8, type: 3}
  - curve:
      serializedVersion: 2
      m_Curve:
      - serializedVersion: 2
        time: 0
        value: 1
        inSlope: -12
        outSlope: -12
        tangentMode: 0
      - serializedVersion: 2
        time: 0.083333336
        value: 0
        inSlope: 0
        outSlope: 0
        tangentMode: 0
      - serializedVersion: 2
        time: 0.16666667
        value: 1
        inSlope: -0.00000047683716
        outSlope: -0.00000047683716
        tangentMode: 0
      - serializedVersion: 2
        time: 0.25
        value: 0
        inSlope: -0.0000009536743
        outSlope: -0.0000009536743
        tangentMode: 0
      - serializedVersion: 2
        time: 0.33333334
        value: 1
        inSlope: 0
        outSlope: 0
        tangentMode: 0
      - serializedVersion: 2
        time: 0.4166667
        value: 0
        inSlope: 0.0000019073486
        outSlope: 0.0000019073486
        tangentMode: 0
      - serializedVersion: 2
        time: 0.5
        value: 1
        inSlope: 0
        outSlope: 0
        tangentMode: 0
      - serializedVersion: 2
        time: 0.5833333
        value: 0
        inSlope: -12.000003
        outSlope: -12.000003
        tangentMode: 0
      m_PreInfinity: 2
      m_PostInfinity: 2
      m_RotationOrder: 4
    attribute: m_Color.g
    path: bar
    classID: 114
    script: {fileID: -765806418, guid: f5f67c52d1564df4a8936ccd202a3bd8, type: 3}
  - curve:
      serializedVersion: 2
      m_Curve:
      - serializedVersion: 2
        time: 0
        value: 1
        inSlope: -12
        outSlope: -12
        tangentMode: 0
      - serializedVersion: 2
        time: 0.083333336
        value: 0
        inSlope: 0
        outSlope: 0
        tangentMode: 0
      - serializedVersion: 2
        time: 0.16666667
        value: 1
        inSlope: -0.00000047683716
        outSlope: -0.00000047683716
        tangentMode: 0
      - serializedVersion: 2
        time: 0.25
        value: 0
        inSlope: -0.0000009536743
        outSlope: -0.0000009536743
        tangentMode: 0
      - serializedVersion: 2
        time: 0.33333334
        value: 1
        inSlope: 0
        outSlope: 0
        tangentMode: 0
      - serializedVersion: 2
        time: 0.4166667
        value: 0
        inSlope: 0.0000019073486
        outSlope: 0.0000019073486
        tangentMode: 0
      - serializedVersion: 2
        time: 0.5
        value: 1
        inSlope: 0
        outSlope: 0
        tangentMode: 0
      - serializedVersion: 2
        time: 0.5833333
        value: 0
        inSlope: -12.000003
        outSlope: -12.000003
        tangentMode: 0
      m_PreInfinity: 2
      m_PostInfinity: 2
      m_RotationOrder: 4
    attribute: m_Color.b
    path: bar
    classID: 114
    script: {fileID: -765806418, guid: f5f67c52d1564df4a8936ccd202a3bd8, type: 3}
  - curve:
      serializedVersion: 2
      m_Curve:
      - serializedVersion: 2
        time: 0
        value: 107
        inSlope: 1140
        outSlope: 1140
        tangentMode: 34
      - serializedVersion: 2
        time: 0.033333335
        value: 145
        inSlope: -779.9999
        outSlope: -779.9999
        tangentMode: 34
      - serializedVersion: 2
        time: 0.06666667
        value: 55
        inSlope: -569.9998
        outSlope: -569.9998
        tangentMode: 34
      - serializedVersion: 2
        time: 0.1
        value: 107
        inSlope: 780.00006
        outSlope: 780.00006
        tangentMode: 34
      - serializedVersion: 2
        time: 0.13333334
        value: 107
        inSlope: 570.00006
        outSlope: 570.00006
        tangentMode: 34
      - serializedVersion: 2
        time: 0.16666667
        value: 145
        inSlope: -779.99945
        outSlope: -779.99945
        tangentMode: 34
      - serializedVersion: 2
        time: 0.20000002
        value: 55
        inSlope: -569.99945
        outSlope: -569.99945
        tangentMode: 34
      - serializedVersion: 2
        time: 0.23333335
        value: 107
        inSlope: 780.00006
        outSlope: 780.00006
        tangentMode: 34
      - serializedVersion: 2
        time: 0.26666668
        value: 107
        inSlope: 570.00006
        outSlope: 570.00006
        tangentMode: 34
      - serializedVersion: 2
        time: 0.3
        value: 145
        inSlope: -780.00006
        outSlope: -780.00006
        tangentMode: 34
      - serializedVersion: 2
        time: 0.33333334
        value: 55
        inSlope: -570.00006
        outSlope: -570.00006
        tangentMode: 34
      - serializedVersion: 2
        time: 0.36666667
        value: 107
        inSlope: 780.00006
        outSlope: 780.00006
        tangentMode: 34
      - serializedVersion: 2
        time: 0.4
        value: 107
        inSlope: 570.00006
        outSlope: 570.00006
        tangentMode: 34
      - serializedVersion: 2
        time: 0.43333334
        value: 145
        inSlope: -780.00006
        outSlope: -780.00006
        tangentMode: 34
      - serializedVersion: 2
        time: 0.46666667
        value: 55
        inSlope: -570.00006
        outSlope: -570.00006
        tangentMode: 34
      - serializedVersion: 2
        time: 0.5
        value: 107
        inSlope: 1560.0001
        outSlope: 1560.0001
        tangentMode: 34
      m_PreInfinity: 2
      m_PostInfinity: 2
      m_RotationOrder: 4
    attribute: m_AnchoredPosition.x
    path: Panel (1)
    classID: 224
    script: {fileID: 0}
  - curve:
      serializedVersion: 2
      m_Curve:
      - serializedVersion: 2
        time: 0
        value: -19
        inSlope: 1140
        outSlope: 1140
        tangentMode: 34
      - serializedVersion: 2
        time: 0.033333335
        value: 19
        inSlope: -779.9999
        outSlope: -779.9999
        tangentMode: 34
      - serializedVersion: 2
        time: 0.06666667
        value: -71
        inSlope: -569.9998
        outSlope: -569.9998
        tangentMode: 34
      - serializedVersion: 2
        time: 0.1
        value: -19
        inSlope: 780.00006
        outSlope: 780.00006
        tangentMode: 34
      - serializedVersion: 2
        time: 0.13333334
        value: -19
        inSlope: 570.00006
        outSlope: 570.00006
        tangentMode: 34
      - serializedVersion: 2
        time: 0.16666667
        value: 19
        inSlope: -779.99945
        outSlope: -779.99945
        tangentMode: 34
      - serializedVersion: 2
        time: 0.20000002
        value: -71
        inSlope: -569.99945
        outSlope: -569.99945
        tangentMode: 34
      - serializedVersion: 2
        time: 0.23333335
        value: -19
        inSlope: 780.00006
        outSlope: 780.00006
        tangentMode: 34
      - serializedVersion: 2
        time: 0.26666668
        value: -19
        inSlope: 570.00006
        outSlope: 570.00006
        tangentMode: 34
      - serializedVersion: 2
        time: 0.3
        value: 19
        inSlope: -780.00006
        outSlope: -780.00006
        tangentMode: 34
      - serializedVersion: 2
        time: 0.33333334
        value: -71
        inSlope: -570.00006
        outSlope: -570.00006
        tangentMode: 34
      - serializedVersion: 2
        time: 0.36666667
        value: -19
        inSlope: 780.00006
        outSlope: 780.00006
        tangentMode: 34
      - serializedVersion: 2
        time: 0.4
        value: -19
        inSlope: 570.00006
        outSlope: 570.00006
        tangentMode: 34
      - serializedVersion: 2
        time: 0.43333334
        value: 19
        inSlope: -780.00006
        outSlope: -780.00006
        tangentMode: 34
      - serializedVersion: 2
        time: 0.46666667
        value: -71
        inSlope: -570.00006
        outSlope: -570.00006
        tangentMode: 34
      - serializedVersion: 2
        time: 0.5
        value: -19
        inSlope: 1560.0001
        outSlope: 1560.0001
        tangentMode: 34
      m_PreInfinity: 2
      m_PostInfinity: 2
      m_RotationOrder: 4
    attribute: m_AnchoredPosition.x
    path: Panel (2)
    classID: 224
    script: {fileID: 0}
  - curve:
      serializedVersion: 2
      m_Curve:
      - serializedVersion: 2
        time: 0
        value: 1
        inSlope: 0
        outSlope: 0
        tangentMode: 34
      - serializedVersion: 2
        time: 0.083333336
        value: 1
        inSlope: 0
        outSlope: 0
        tangentMode: 34
      - serializedVersion: 2
        time: 0.16666667
        value: 1
        inSlope: 0
        outSlope: 0
        tangentMode: 34
      - serializedVersion: 2
        time: 0.25
        value: 1
        inSlope: 0
        outSlope: 0
        tangentMode: 34
      - serializedVersion: 2
        time: 0.33333334
        value: 1
        inSlope: 0
        outSlope: 0
        tangentMode: 34
      - serializedVersion: 2
        time: 0.4166667
        value: 1
        inSlope: 0
        outSlope: 0
        tangentMode: 34
      - serializedVersion: 2
        time: 0.5
        value: 1
        inSlope: 0
        outSlope: 0
        tangentMode: 34
      - serializedVersion: 2
        time: 0.5833333
        value: 1
        inSlope: 0
        outSlope: 0
        tangentMode: 34
      m_PreInfinity: 2
      m_PostInfinity: 2
      m_RotationOrder: 4
    attribute: m_Color.a
    path: Panel (1)
    classID: 114
    script: {fileID: -765806418, guid: f5f67c52d1564df4a8936ccd202a3bd8, type: 3}
  - curve:
      serializedVersion: 2
      m_Curve:
      - serializedVersion: 2
        time: 0
        value: 1
        inSlope: 0
        outSlope: 0
        tangentMode: 34
      - serializedVersion: 2
        time: 0.083333336
        value: 1
        inSlope: 0
        outSlope: 0
        tangentMode: 34
      - serializedVersion: 2
        time: 0.16666667
        value: 1
        inSlope: 0
        outSlope: 0
        tangentMode: 34
      - serializedVersion: 2
        time: 0.25
        value: 1
        inSlope: 0
        outSlope: 0
        tangentMode: 34
      - serializedVersion: 2
        time: 0.33333334
        value: 1
        inSlope: 0
        outSlope: 0
        tangentMode: 34
      - serializedVersion: 2
        time: 0.4166667
        value: 1
        inSlope: 0
        outSlope: 0
        tangentMode: 34
      - serializedVersion: 2
        time: 0.5
        value: 1
        inSlope: 0
        outSlope: 0
        tangentMode: 34
      - serializedVersion: 2
        time: 0.5833333
        value: 1
        inSlope: 0
        outSlope: 0
        tangentMode: 34
      m_PreInfinity: 2
      m_PostInfinity: 2
      m_RotationOrder: 4
    attribute: m_Color.a
    path: Panel (2)
    classID: 114
    script: {fileID: -765806418, guid: f5f67c52d1564df4a8936ccd202a3bd8, type: 3}
  - curve:
      serializedVersion: 2
      m_Curve:
      - serializedVersion: 2
        time: 0
        value: 1
        inSlope: 0
        outSlope: 0
        tangentMode: 34
      - serializedVersion: 2
        time: 0.083333336
        value: 1
        inSlope: 0
        outSlope: 0
        tangentMode: 34
      - serializedVersion: 2
        time: 0.16666667
        value: 1
        inSlope: 0
        outSlope: 0
        tangentMode: 34
      - serializedVersion: 2
        time: 0.25
        value: 1
        inSlope: 0
        outSlope: 0
        tangentMode: 34
      - serializedVersion: 2
        time: 0.33333334
        value: 1
        inSlope: 0
        outSlope: 0
        tangentMode: 34
      - serializedVersion: 2
        time: 0.4166667
        value: 1
        inSlope: 0
        outSlope: 0
        tangentMode: 34
      - serializedVersion: 2
        time: 0.5
        value: 1
        inSlope: 0
        outSlope: 0
        tangentMode: 34
      - serializedVersion: 2
        time: 0.5833333
        value: 1
        inSlope: 0
        outSlope: 0
        tangentMode: 34
      m_PreInfinity: 2
      m_PostInfinity: 2
      m_RotationOrder: 4
    attribute: m_Color.r
    path: Panel (1)
    classID: 114
    script: {fileID: -765806418, guid: f5f67c52d1564df4a8936ccd202a3bd8, type: 3}
  - curve:
      serializedVersion: 2
      m_Curve:
      - serializedVersion: 2
        time: 0
        value: 1
        inSlope: -12
        outSlope: -12
        tangentMode: 34
      - serializedVersion: 2
        time: 0.083333336
        value: 0
        inSlope: 0
        outSlope: 0
        tangentMode: 34
      - serializedVersion: 2
        time: 0.16666667
        value: 1
        inSlope: -0.00000047683716
        outSlope: -0.00000047683716
        tangentMode: 34
      - serializedVersion: 2
        time: 0.25
        value: 0
        inSlope: -0.0000009536743
        outSlope: -0.0000009536743
        tangentMode: 34
      - serializedVersion: 2
        time: 0.33333334
        value: 1
        inSlope: 0
        outSlope: 0
        tangentMode: 34
      - serializedVersion: 2
        time: 0.4166667
        value: 0
        inSlope: 0.0000019073486
        outSlope: 0.0000019073486
        tangentMode: 34
      - serializedVersion: 2
        time: 0.5
        value: 1
        inSlope: 0
        outSlope: 0
        tangentMode: 34
      - serializedVersion: 2
        time: 0.5833333
        value: 0
        inSlope: -12.000003
        outSlope: -12.000003
        tangentMode: 34
      m_PreInfinity: 2
      m_PostInfinity: 2
      m_RotationOrder: 4
    attribute: m_Color.g
    path: Panel (1)
    classID: 114
    script: {fileID: -765806418, guid: f5f67c52d1564df4a8936ccd202a3bd8, type: 3}
  - curve:
      serializedVersion: 2
      m_Curve:
      - serializedVersion: 2
        time: 0
        value: 1
        inSlope: -12
        outSlope: -12
        tangentMode: 34
      - serializedVersion: 2
        time: 0.083333336
        value: 0
        inSlope: 0
        outSlope: 0
        tangentMode: 34
      - serializedVersion: 2
        time: 0.16666667
        value: 1
        inSlope: -0.00000047683716
        outSlope: -0.00000047683716
        tangentMode: 34
      - serializedVersion: 2
        time: 0.25
        value: 0
        inSlope: -0.0000009536743
        outSlope: -0.0000009536743
        tangentMode: 34
      - serializedVersion: 2
        time: 0.33333334
        value: 1
        inSlope: 0
        outSlope: 0
        tangentMode: 34
      - serializedVersion: 2
        time: 0.4166667
        value: 0
        inSlope: 0.0000019073486
        outSlope: 0.0000019073486
        tangentMode: 34
      - serializedVersion: 2
        time: 0.5
        value: 1
        inSlope: 0
        outSlope: 0
        tangentMode: 34
      - serializedVersion: 2
        time: 0.5833333
        value: 0
        inSlope: -12.000003
        outSlope: -12.000003
        tangentMode: 34
      m_PreInfinity: 2
      m_PostInfinity: 2
      m_RotationOrder: 4
    attribute: m_Color.b
    path: Panel (1)
    classID: 114
    script: {fileID: -765806418, guid: f5f67c52d1564df4a8936ccd202a3bd8, type: 3}
  - curve:
      serializedVersion: 2
      m_Curve:
      - serializedVersion: 2
        time: 0
        value: 1
        inSlope: 0
        outSlope: 0
        tangentMode: 34
      - serializedVersion: 2
        time: 0.083333336
        value: 1
        inSlope: 0
        outSlope: 0
        tangentMode: 34
      - serializedVersion: 2
        time: 0.16666667
        value: 1
        inSlope: 0
        outSlope: 0
        tangentMode: 34
      - serializedVersion: 2
        time: 0.25
        value: 1
        inSlope: 0
        outSlope: 0
        tangentMode: 34
      - serializedVersion: 2
        time: 0.33333334
        value: 1
        inSlope: 0
        outSlope: 0
        tangentMode: 34
      - serializedVersion: 2
        time: 0.4166667
        value: 1
        inSlope: 0
        outSlope: 0
        tangentMode: 34
      - serializedVersion: 2
        time: 0.5
        value: 1
        inSlope: 0
        outSlope: 0
        tangentMode: 34
      - serializedVersion: 2
        time: 0.5833333
        value: 1
        inSlope: 0
        outSlope: 0
        tangentMode: 34
      m_PreInfinity: 2
      m_PostInfinity: 2
      m_RotationOrder: 4
    attribute: m_Color.r
    path: Panel (2)
    classID: 114
    script: {fileID: -765806418, guid: f5f67c52d1564df4a8936ccd202a3bd8, type: 3}
  - curve:
      serializedVersion: 2
      m_Curve:
      - serializedVersion: 2
        time: 0
        value: 1
        inSlope: -12
        outSlope: -12
        tangentMode: 34
      - serializedVersion: 2
        time: 0.083333336
        value: 0
        inSlope: 0
        outSlope: 0
        tangentMode: 34
      - serializedVersion: 2
        time: 0.16666667
        value: 1
        inSlope: -0.00000047683716
        outSlope: -0.00000047683716
        tangentMode: 34
      - serializedVersion: 2
        time: 0.25
        value: 0
        inSlope: -0.0000009536743
        outSlope: -0.0000009536743
        tangentMode: 34
      - serializedVersion: 2
        time: 0.33333334
        value: 1
        inSlope: 0
        outSlope: 0
        tangentMode: 34
      - serializedVersion: 2
        time: 0.4166667
        value: 0
        inSlope: 0.0000019073486
        outSlope: 0.0000019073486
        tangentMode: 34
      - serializedVersion: 2
        time: 0.5
        value: 1
        inSlope: 0
        outSlope: 0
        tangentMode: 34
      - serializedVersion: 2
        time: 0.5833333
        value: 0
        inSlope: -12.000003
        outSlope: -12.000003
        tangentMode: 34
      m_PreInfinity: 2
      m_PostInfinity: 2
      m_RotationOrder: 4
    attribute: m_Color.g
    path: Panel (2)
    classID: 114
    script: {fileID: -765806418, guid: f5f67c52d1564df4a8936ccd202a3bd8, type: 3}
  - curve:
      serializedVersion: 2
      m_Curve:
      - serializedVersion: 2
        time: 0
        value: 1
        inSlope: -12
        outSlope: -12
        tangentMode: 34
      - serializedVersion: 2
        time: 0.083333336
        value: 0
        inSlope: 0
        outSlope: 0
        tangentMode: 34
      - serializedVersion: 2
        time: 0.16666667
        value: 1
        inSlope: -0.00000047683716
        outSlope: -0.00000047683716
        tangentMode: 34
      - serializedVersion: 2
        time: 0.25
        value: 0
        inSlope: -0.0000009536743
        outSlope: -0.0000009536743
        tangentMode: 34
      - serializedVersion: 2
        time: 0.33333334
        value: 1
        inSlope: 0
        outSlope: 0
        tangentMode: 34
      - serializedVersion: 2
        time: 0.4166667
        value: 0
        inSlope: 0.0000019073486
        outSlope: 0.0000019073486
        tangentMode: 34
      - serializedVersion: 2
        time: 0.5
        value: 1
        inSlope: 0
        outSlope: 0
        tangentMode: 34
      - serializedVersion: 2
        time: 0.5833333
        value: 0
        inSlope: -12.000003
        outSlope: -12.000003
        tangentMode: 34
      m_PreInfinity: 2
      m_PostInfinity: 2
      m_RotationOrder: 4
    attribute: m_Color.b
    path: Panel (2)
    classID: 114
    script: {fileID: -765806418, guid: f5f67c52d1564df4a8936ccd202a3bd8, type: 3}
  m_EulerEditorCurves: []
  m_HasGenericRootTransform: 0
  m_HasMotionFloatCurves: 0
  m_GenerateMotionCurves: 0
  m_IsEmpty: 0
  m_Events: []
