%YAML 1.1
%TAG !u! tag:unity3d.com,2011:
--- !u!74 &7400000
AnimationClip:
  m_ObjectHideFlags: 0
  m_PrefabParentObject: {fileID: 0}
  m_PrefabInternal: {fileID: 0}
  m_Name: HeatIndicator
  serializedVersion: 6
  m_Legacy: 0
  m_Compressed: 0
  m_UseHighQualityCurve: 1
  m_RotationCurves: []
  m_CompressedRotationCurves: []
  m_EulerCurves: []
  m_PositionCurves: []
  m_ScaleCurves: []
  m_FloatCurves: []
  m_PPtrCurves:
  - curve:
    - time: 0
      value: {fileID: 21300000, guid: 88371be40f296f94aa4b263a8622072f, type: 3}
    - time: 0.016666668
      value: {fileID: 21300000, guid: 05707cc333d2b094196802be20779b4b, type: 3}
    - time: 0.033333335
      value: {fileID: 21300000, guid: aecaba56153d24d49bafd3fc643b569e, type: 3}
    - time: 0.05
      value: {fileID: 21300000, guid: ab6c51a1d497b934a90d90043d90ee13, type: 3}
    - time: 0.06666667
      value: {fileID: 21300000, guid: f7bfb0fe097a660488165a348eca1fd6, type: 3}
    - time: 0.083333336
      value: {fileID: 21300000, guid: 6fb22b74a6d55db4797446b94571f763, type: 3}
    - time: 0.1
      value: {fileID: 21300000, guid: c6aa37346c5b0034d9852f14e7862853, type: 3}
    - time: 0.11666667
      value: {fileID: 21300000, guid: 24cfc524ef7e4564181621bbd068e371, type: 3}
    - time: 0.13333334
      value: {fileID: 21300000, guid: 3bc6674c29f5f764faa2359274d393b3, type: 3}
    - time: 0.15
      value: {fileID: 21300000, guid: 056a51ee1df98954098bc188ec9db301, type: 3}
    - time: 0.16666667
      value: {fileID: 21300000, guid: ff988d068cfba3f48962a41ba01e26ee, type: 3}
    - time: 0.18333334
      value: {fileID: 21300000, guid: 6cf10294d3fecc843b7e22002f78b669, type: 3}
    - time: 0.2
      value: {fileID: 21300000, guid: 6f3649a69e41af7469c1c1f3ca5163ec, type: 3}
    - time: 0.21666667
      value: {fileID: 21300000, guid: dbf4eb329b35271438f3d52965c1dc2d, type: 3}
    - time: 0.23333333
      value: {fileID: 21300000, guid: 73272070418f82f47b2b04f5020e7a9d, type: 3}
    - time: 0.25
      value: {fileID: 21300000, guid: f800180306288eb4dbd4b5c47b4c0b64, type: 3}
    - time: 0.26666668
      value: {fileID: 21300000, guid: c6c0edd1a5c69294aa0ab7e2e3e9ec41, type: 3}
    - time: 0.28333336
      value: {fileID: 21300000, guid: 89679a7dfa46aaf42afd21ebfeb5b3c2, type: 3}
    - time: 0.30000004
      value: {fileID: 21300000, guid: d5aedd53f9d066b42bc458c3f9e26a3b, type: 3}
    - time: 0.31666672
      value: {fileID: 21300000, guid: 50353bdf70346a041888a8d659919983, type: 3}
    - time: 0.3333334
      value: {fileID: 21300000, guid: 49909ca5fa379b14bade67f04757cae4, type: 3}
    - time: 0.35000008
      value: {fileID: 21300000, guid: 506175b97676cc647bb98d253388ad20, type: 3}
    - time: 0.36666676
      value: {fileID: 21300000, guid: 858d66833daee174aa43c0d91f010125, type: 3}
    - time: 0.38333344
      value: {fileID: 21300000, guid: 364f6744bacb47248998f1e1e06a5f9b, type: 3}
    - time: 0.40000013
      value: {fileID: 21300000, guid: b21792415f836a04da6bd4d6cddb0b51, type: 3}
    - time: 0.4166668
      value: {fileID: 21300000, guid: 202b7b7e76521584bbfcb00045651fb3, type: 3}
    - time: 0.4333335
      value: {fileID: 21300000, guid: 1677c50ea621bd04c8bc6471ff7da94a, type: 3}
    - time: 0.45000017
      value: {fileID: 21300000, guid: 310c1d65bcf8c4e4c9727da64e75a704, type: 3}
    - time: 0.46666685
      value: {fileID: 21300000, guid: c3398b155aea54340be9db9c28943053, type: 3}
    - time: 0.48333353
      value: {fileID: 21300000, guid: b6a78395f7e95f9468deda8a144ef023, type: 3}
    - time: 0.5000002
      value: {fileID: 21300000, guid: c00ccb3589036fc45ac9cba13efc9c32, type: 3}
    - time: 0.5166668
      value: {fileID: 21300000, guid: 94d602fce9660f349b888b1fb8b1f458, type: 3}
    - time: 0.5333335
      value: {fileID: 21300000, guid: 9007a147f56df674fba1cd6d58ec5253, type: 3}
    - time: 0.55000013
      value: {fileID: 21300000, guid: 08f1d35172d352a4c9cc6fa640477285, type: 3}
    - time: 0.5666668
      value: {fileID: 21300000, guid: caf2aba8d3b407246945ebf6c21f576b, type: 3}
    - time: 0.58333343
      value: {fileID: 21300000, guid: 412bc5b94b4f89345aa4626c61b61dcb, type: 3}
    - time: 0.6000001
      value: {fileID: 21300000, guid: 85c03d2f89d9eed4cb755b32a8b8f333, type: 3}
    - time: 0.61666673
      value: {fileID: 21300000, guid: 40939456387938d40bd999c9810dc90d, type: 3}
    - time: 0.6333334
      value: {fileID: 21300000, guid: 77932930840a4de439e184e673335501, type: 3}
    - time: 0.65000004
      value: {fileID: 21300000, guid: bcd9de37e0ff15144a9ba09225821329, type: 3}
    - time: 0.6666667
      value: {fileID: 21300000, guid: 748dcef52d792d64c89dcb35cee7809c, type: 3}
    attribute: m_Sprite
    path: 
    classID: 114
    script: {fileID: -765806418, guid: f70555f144d8491a825f0804e09c671c, type: 3}
  m_SampleRate: 60
  m_WrapMode: 0
  m_Bounds:
    m_Center: {x: 0, y: 0, z: 0}
    m_Extent: {x: 0, y: 0, z: 0}
  m_ClipBindingConstant:
    genericBindings:
    - path: 0
      attribute: 2015549526
      script: {fileID: -765806418, guid: f70555f144d8491a825f0804e09c671c, type: 3}
      classID: 114
      customType: 0
      isPPtrCurve: 1
    pptrCurveMapping:
    - {fileID: 21300000, guid: 88371be40f296f94aa4b263a8622072f, type: 3}
    - {fileID: 21300000, guid: 05707cc333d2b094196802be20779b4b, type: 3}
    - {fileID: 21300000, guid: aecaba56153d24d49bafd3fc643b569e, type: 3}
    - {fileID: 21300000, guid: ab6c51a1d497b934a90d90043d90ee13, type: 3}
    - {fileID: 21300000, guid: f7bfb0fe097a660488165a348eca1fd6, type: 3}
    - {fileID: 21300000, guid: 6fb22b74a6d55db4797446b94571f763, type: 3}
    - {fileID: 21300000, guid: c6aa37346c5b0034d9852f14e7862853, type: 3}
    - {fileID: 21300000, guid: 24cfc524ef7e4564181621bbd068e371, type: 3}
    - {fileID: 21300000, guid: 3bc6674c29f5f764faa2359274d393b3, type: 3}
    - {fileID: 21300000, guid: 056a51ee1df98954098bc188ec9db301, type: 3}
    - {fileID: 21300000, guid: ff988d068cfba3f48962a41ba01e26ee, type: 3}
    - {fileID: 21300000, guid: 6cf10294d3fecc843b7e22002f78b669, type: 3}
    - {fileID: 21300000, guid: 6f3649a69e41af7469c1c1f3ca5163ec, type: 3}
    - {fileID: 21300000, guid: dbf4eb329b35271438f3d52965c1dc2d, type: 3}
    - {fileID: 21300000, guid: 73272070418f82f47b2b04f5020e7a9d, type: 3}
    - {fileID: 21300000, guid: f800180306288eb4dbd4b5c47b4c0b64, type: 3}
    - {fileID: 21300000, guid: c6c0edd1a5c69294aa0ab7e2e3e9ec41, type: 3}
    - {fileID: 21300000, guid: 89679a7dfa46aaf42afd21ebfeb5b3c2, type: 3}
    - {fileID: 21300000, guid: d5aedd53f9d066b42bc458c3f9e26a3b, type: 3}
    - {fileID: 21300000, guid: 50353bdf70346a041888a8d659919983, type: 3}
    - {fileID: 21300000, guid: 49909ca5fa379b14bade67f04757cae4, type: 3}
    - {fileID: 21300000, guid: 506175b97676cc647bb98d253388ad20, type: 3}
    - {fileID: 21300000, guid: 858d66833daee174aa43c0d91f010125, type: 3}
    - {fileID: 21300000, guid: 364f6744bacb47248998f1e1e06a5f9b, type: 3}
    - {fileID: 21300000, guid: b21792415f836a04da6bd4d6cddb0b51, type: 3}
    - {fileID: 21300000, guid: 202b7b7e76521584bbfcb00045651fb3, type: 3}
    - {fileID: 21300000, guid: 1677c50ea621bd04c8bc6471ff7da94a, type: 3}
    - {fileID: 21300000, guid: 310c1d65bcf8c4e4c9727da64e75a704, type: 3}
    - {fileID: 21300000, guid: c3398b155aea54340be9db9c28943053, type: 3}
    - {fileID: 21300000, guid: b6a78395f7e95f9468deda8a144ef023, type: 3}
    - {fileID: 21300000, guid: c00ccb3589036fc45ac9cba13efc9c32, type: 3}
    - {fileID: 21300000, guid: 94d602fce9660f349b888b1fb8b1f458, type: 3}
    - {fileID: 21300000, guid: 9007a147f56df674fba1cd6d58ec5253, type: 3}
    - {fileID: 21300000, guid: 08f1d35172d352a4c9cc6fa640477285, type: 3}
    - {fileID: 21300000, guid: caf2aba8d3b407246945ebf6c21f576b, type: 3}
    - {fileID: 21300000, guid: 412bc5b94b4f89345aa4626c61b61dcb, type: 3}
    - {fileID: 21300000, guid: 85c03d2f89d9eed4cb755b32a8b8f333, type: 3}
    - {fileID: 21300000, guid: 40939456387938d40bd999c9810dc90d, type: 3}
    - {fileID: 21300000, guid: 77932930840a4de439e184e673335501, type: 3}
    - {fileID: 21300000, guid: bcd9de37e0ff15144a9ba09225821329, type: 3}
    - {fileID: 21300000, guid: 748dcef52d792d64c89dcb35cee7809c, type: 3}
  m_AnimationClipSettings:
    serializedVersion: 2
    m_AdditiveReferencePoseClip: {fileID: 0}
    m_AdditiveReferencePoseTime: 0
    m_StartTime: 0
    m_StopTime: 0.68333334
    m_OrientationOffsetY: 0
    m_Level: 0
    m_CycleOffset: 0
    m_HasAdditiveReferencePose: 0
    m_LoopTime: 1
    m_LoopBlend: 0
    m_LoopBlendOrientation: 0
    m_LoopBlendPositionY: 0
    m_LoopBlendPositionXZ: 0
    m_KeepOriginalOrientation: 0
    m_KeepOriginalPositionY: 1
    m_KeepOriginalPositionXZ: 0
    m_HeightFromFeet: 0
    m_Mirror: 0
  m_EditorCurves: []
  m_EulerEditorCurves: []
  m_HasGenericRootTransform: 0
  m_HasMotionFloatCurves: 0
  m_GenerateMotionCurves: 0
  m_IsEmpty: 0
  m_Events: []
